module bitbucket.org/flaviocfoliveira/sessions

go 1.18

require (
	github.com/stretchr/testify v1.6.1
	go.mongodb.org/mongo-driver v1.10.0
)

require (
	github.com/davecgh/go-spew v1.1.1 // indirect
	github.com/golang/snappy v0.0.4 // indirect
	github.com/klauspost/compress v1.15.9 // indirect
	github.com/montanaflynn/stats v0.6.6 // indirect
	github.com/pkg/errors v0.9.1 // indirect
	github.com/pmezard/go-difflib v1.0.0 // indirect
	github.com/xdg-go/pbkdf2 v1.0.0 // indirect
	github.com/xdg-go/scram v1.1.1 // indirect
	github.com/xdg-go/stringprep v1.0.3 // indirect
	github.com/youmark/pkcs8 v0.0.0-20201027041543-1326539a0a0a // indirect
	golang.org/x/crypto v0.0.0-20220722155217-630584e8d5aa // indirect
	golang.org/x/sync v0.0.0-20220722155255-886fb9371eb4 // indirect
	golang.org/x/text v0.3.7 // indirect
	gopkg.in/yaml.v3 v3.0.1 // indirect
)
